Final Project
…
# Look at difference scores for all animals
rank_long |>
  group_by(animal, rating_type) |>
  summarise(mean_diff = mean(diff_score, na.rm = TRUE),
            sd_diff = sd(diff_score, na.rm = TRUE), .groups = "drop") |>
  arrange(rating_type, desc(mean_diff))

## # A tibble: 57 × 4
##    animal  rating_type mean_diff sd_diff
##    <chr>   <chr>           <dbl>   <dbl>
##  1 fish    likeability    1.65      3.51
##  2 sparrow likeability    1.24      3.01
##  3 rabbit  likeability    0.875     3.77
##  4 duck    likeability    0.818     3.77
##  5 lion    likeability    0.511     2.72
##  6 horse   likeability    0.455     3.30
##  7 spider  likeability    0.375     2.14
##  8 sheep   likeability    0.318     4.03
##  9 human   likeability    0.273     2.16
## 10 mouse   likeability    0.0227    3.19
## # ℹ 47 more rows
…
