HW 6: Gaslighting dataset
…
# Adding back in variables of interest from original gaslight dataframe
my_gaslight <- gaslight_token |>
  left_join(gaslight |>
              dplyr::select(ID, Ever_Gaslit, Age, Gender))

## Joining with `by = join_by(ID)`

# Adding in database lookup values
my_gaslight <- my_gaslight |>
  left_join(lookup_db, by = c("word_clean" = "word"))
print(my_gaslight)

## # A tibble: 83,051 × 57
##    ID    id_row_orig text  word_raw id_row_postsplit word_lemma word_clean n_raw
##    <fct>       <int> <chr> <chr>               <int> <chr>      <chr>      <int>
##  1 814             1 the … the                     1 the        <NA>           7
##  2 814             1 the … student                 2 student    student        1
##  3 814             1 the … be                      3 be         <NA>           5
##  4 814             1 the … harass                  4 harass     harass         1
##  5 814             1 the … by                      5 by         <NA>           1
##  6 814             1 the … a                       6 a          <NA>           1
##  7 814             1 the … customer                7 customer   customer       5
##  8 814             1 the … she                     8 she        <NA>           4
##  9 814             1 the … say                     9 say        say            1
## 10 814             1 the … stuff                  10 stuff      stuff          1
## # ℹ 83,041 more rows
## # ℹ 49 more variables: n_clean <int>, Ever_Gaslit <fct>, Age <int>,
## #   Gender <fct>, emo_anger <dbl>, emo_anger_rescale <dbl>, emo_anxiety <dbl>,
## #   emo_anxiety_rescale <dbl>, emo_arousal_b24 <dbl>,
## #   emo_arousal_b24_rescale <dbl>, emo_boredom <dbl>,
## #   emo_boredom_rescale <dbl>, emo_confusion <dbl>,
## #   emo_confusion_rescale <dbl>, emo_excitement <dbl>, …
…
## Warning: Using one column matrices in `filter()` was deprecated in dplyr 1.1.0.
## ℹ Please use one dimensional logical vectors instead.
## This warning is displayed once per session.
## Call `lifecycle::last_lifecycle_warnings()` to see where this warning was
## generated.

analysis_df

## # A tibble: 42,219 × 6
##    ID    word_clean emo_intensity_recale[,1] Gender   Age Ever_Gaslit
##    <fct> <chr>                         <dbl> <fct>  <dbl> <fct>      
##  1 814   student                       3.08  Female    19 No         
##  2 814   harass                        8.70  Female    19 No         
##  3 814   customer                      0.709 Female    19 No         
##  4 814   say                           0.155 Female    19 No         
##  5 814   stuff                         0.133 Female    19 No         
##  6 814   back                          0.133 Female    19 No         
##  7 814   customer                      0.709 Female    19 No         
##  8 814   make                          0.155 Female    19 No         
##  9 814   customer                      0.709 Female    19 No         
## 10 814   much                          0.133 Female    19 No         
## # ℹ 42,209 more rows
…
# New analysis df
analysis_df2 <- my_gaslight |>
  dplyr::select(ID, word_clean, emo_intensity_recale, Gender, lex_AoA_rescale, lex_freqlg10_rescale) |>
  dplyr::filter(!is.na(word_clean), word_clean != "", 
                !is.na(emo_intensity_recale), emo_intensity_recale != "", 
                !is.na(Gender), Gender != "",  # Blanks in df for some / not NAs
                !is.na(lex_AoA_rescale), lex_AoA_rescale != "", 
                !is.na(lex_freqlg10_rescale), lex_freqlg10_rescale != "") |>
  dplyr::mutate(Gender = factor(Gender))
analysis_df2

## # A tibble: 41,235 × 6
##    ID    word_clean emo_intensity_recale[,1] Gender lex_AoA_rescale
##    <fct> <chr>                         <dbl> <fct>            <dbl>
##  1 814   student                       3.08  Female           1.68 
##  2 814   harass                        8.70  Female           3.56 
##  3 814   customer                      0.709 Female           2.16 
##  4 814   say                           0.155 Female           0.707
##  5 814   stuff                         0.133 Female           1.31 
##  6 814   back                          0.133 Female           1.43 
##  7 814   customer                      0.709 Female           2.16 
##  8 814   make                          0.155 Female           1.19 
##  9 814   customer                      0.709 Female           2.16 
## 10 814   much                          0.133 Female           1.15 
## # ℹ 41,225 more rows
## # ℹ 1 more variable: lex_freqlg10_rescale <dbl>
…
